%YAML 1.1
%TAG !u! tag:unity3d.com,2011:
--- !u!1 &710461989053120313
GameObject:
  m_ObjectHideFlags: 0
  m_CorrespondingSourceObject: {fileID: 0}
  m_PrefabInstance: {fileID: 0}
  m_PrefabAsset: {fileID: 0}
  serializedVersion: 6
  m_Component:
  - component: {fileID: 587421788328250337}
  - component: {fileID: 8871914925926458291}
  - component: {fileID: 1892744262930587147}
  - component: {fileID: 234348182019268878}
  - component: {fileID: 3926658831441500453}
  m_Layer: 0
  m_Name: Tree
  m_TagString: Untagged
  m_Icon: {fileID: 0}
  m_NavMeshLayer: 0
  m_StaticEditorFlags: 0
  m_IsActive: 1
--- !u!4 &587421788328250337
Transform:
  m_ObjectHideFlags: 0
  m_CorrespondingSourceObject: {fileID: 0}
  m_PrefabInstance: {fileID: 0}
  m_PrefabAsset: {fileID: 0}
  m_GameObject: {fileID: 710461989053120313}
  m_LocalRotation: {x: 0, y: 0, z: 0, w: 1}
  m_LocalPosition: {x: -5, y: 4, z: -3}
  m_LocalScale: {x: 1, y: 1, z: 1}
  m_Children: []
  m_Father: {fileID: 0}
  m_RootOrder: 0
  m_LocalEulerAnglesHint: {x: 0, y: 0, z: 0}
--- !u!114 &8871914925926458291
MonoBehaviour:
  m_ObjectHideFlags: 0
  m_CorrespondingSourceObject: {fileID: 0}
  m_PrefabInstance: {fileID: 0}
  m_PrefabAsset: {fileID: 0}
  m_GameObject: {fileID: 710461989053120313}
  m_Enabled: 1
  m_EditorHideFlags: 0
  m_Script: {fileID: 11500000, guid: 8233d90336aea43098adf6dbabd606a2, type: 3}
  m_Name: 
  m_EditorClassIdentifier: 
  m_MeshFormatVersion: 1
  m_Faces:
  - m_Indexes: 000000000100000002000000010000000300000002000000
    m_SmoothingGroup: 1
    m_Uv:
      m_UseWorldSpace: 0
      m_FlipU: 0
      m_FlipV: 0
      m_SwapUV: 0
      m_Fill: 1
      m_Scale: {x: 1, y: 1}
      m_Offset: {x: 0, y: 0}
      m_Rotation: 0
      m_Anchor: 9
    m_Material: {fileID: 0}
    m_SubmeshIndex: 0
    m_ManualUV: 0
    elementGroup: -1
    m_TextureGroup: -1
  - m_Indexes: 040000000500000006000000050000000700000006000000
    m_SmoothingGroup: 1
    m_Uv:
      m_UseWorldSpace: 0
      m_FlipU: 0
      m_FlipV: 0
      m_SwapUV: 0
      m_Fill: 1
      m_Scale: {x: 1, y: 1}
      m_Offset: {x: 0, y: 0}
      m_Rotation: 0
      m_Anchor: 9
    m_Material: {fileID: 0}
    m_SubmeshIndex: 0
    m_ManualUV: 0
    elementGroup: -1
    m_TextureGroup: -1
  - m_Indexes: 08000000090000000a000000090000000b0000000a000000
    m_SmoothingGroup: 1
    m_Uv:
      m_UseWorldSpace: 0
      m_FlipU: 0
      m_FlipV: 0
      m_SwapUV: 0
      m_Fill: 1
      m_Scale: {x: 1, y: 1}
      m_Offset: {x: 0, y: 0}
      m_Rotation: 0
      m_Anchor: 9
    m_Material: {fileID: 0}
    m_SubmeshIndex: 0
    m_ManualUV: 0
    elementGroup: -1
    m_TextureGroup: -1
  - m_Indexes: 0c0000000d0000000e0000000d0000000f0000000e000000
    m_SmoothingGroup: 1
    m_Uv:
      m_UseWorldSpace: 0
      m_FlipU: 0
      m_FlipV: 0
      m_SwapUV: 0
      m_Fill: 1
      m_Scale: {x: 1, y: 1}
      m_Offset: {x: 0, y: 0}
      m_Rotation: 0
      m_Anchor: 9
    m_Material: {fileID: 0}
    m_SubmeshIndex: 0
    m_ManualUV: 0
    elementGroup: -1
    m_TextureGroup: -1
  - m_Indexes: 100000001100000012000000110000001300000012000000
    m_SmoothingGroup: 1
    m_Uv:
      m_UseWorldSpace: 0
      m_FlipU: 0
      m_FlipV: 0
      m_SwapUV: 0
      m_Fill: 1
      m_Scale: {x: 1, y: 1}
      m_Offset: {x: 0, y: 0}
      m_Rotation: 0
      m_Anchor: 9
    m_Material: {fileID: 0}
    m_SubmeshIndex: 0
    m_ManualUV: 0
    elementGroup: -1
    m_TextureGroup: -1
  - m_Indexes: 140000001500000016000000150000001700000016000000
    m_SmoothingGroup: 1
    m_Uv:
      m_UseWorldSpace: 0
      m_FlipU: 0
      m_FlipV: 0
      m_SwapUV: 0
      m_Fill: 1
      m_Scale: {x: 1, y: 1}
      m_Offset: {x: 0, y: 0}
      m_Rotation: 0
      m_Anchor: 9
    m_Material: {fileID: 0}
    m_SubmeshIndex: 0
    m_ManualUV: 0
    elementGroup: -1
    m_TextureGroup: -1
  - m_Indexes: 18000000190000001a000000190000001b0000001a000000
    m_SmoothingGroup: 1
    m_Uv:
      m_UseWorldSpace: 0
      m_FlipU: 0
      m_FlipV: 0
      m_SwapUV: 0
      m_Fill: 1
      m_Scale: {x: 1, y: 1}
      m_Offset: {x: 0, y: 0}
      m_Rotation: 0
      m_Anchor: 9
    m_Material: {fileID: 0}
    m_SubmeshIndex: 0
    m_ManualUV: 0
    elementGroup: -1
    m_TextureGroup: -1
  - m_Indexes: 1c0000001d0000001e0000001d0000001f0000001e000000
    m_SmoothingGroup: 1
    m_Uv:
      m_UseWorldSpace: 0
      m_FlipU: 0
      m_FlipV: 0
      m_SwapUV: 0
      m_Fill: 1
      m_Scale: {x: 1, y: 1}
      m_Offset: {x: 0, y: 0}
      m_Rotation: 0
      m_Anchor: 9
    m_Material: {fileID: 0}
    m_SubmeshIndex: 0
    m_ManualUV: 0
    elementGroup: -1
    m_TextureGroup: -1
  - m_Indexes: 220000002100000020000000
    m_SmoothingGroup: 0
    m_Uv:
      m_UseWorldSpace: 0
      m_FlipU: 0
      m_FlipV: 0
      m_SwapUV: 0
      m_Fill: 1
      m_Scale: {x: 1, y: 1}
      m_Offset: {x: 0, y: 0}
      m_Rotation: 0
      m_Anchor: 9
    m_Material: {fileID: 2100000, guid: c22777d6e868e4f2fb421913386b154e, type: 2}
    m_SubmeshIndex: 0
    m_ManualUV: 0
    elementGroup: 0
    m_TextureGroup: -1
  - m_Indexes: 280000002700000026000000
    m_SmoothingGroup: 0
    m_Uv:
      m_UseWorldSpace: 0
      m_FlipU: 0
      m_FlipV: 0
      m_SwapUV: 0
      m_Fill: 1
      m_Scale: {x: 1, y: 1}
      m_Offset: {x: 0, y: 0}
      m_Rotation: 0
      m_Anchor: 9
    m_Material: {fileID: 2100000, guid: c22777d6e868e4f2fb421913386b154e, type: 2}
    m_SubmeshIndex: 0
    m_ManualUV: 0
    elementGroup: 0
    m_TextureGroup: -1
  - m_Indexes: 2e0000002d0000002c000000
    m_SmoothingGroup: 0
    m_Uv:
      m_UseWorldSpace: 0
      m_FlipU: 0
      m_FlipV: 0
      m_SwapUV: 0
      m_Fill: 1
      m_Scale: {x: 1, y: 1}
      m_Offset: {x: 0, y: 0}
      m_Rotation: 0
      m_Anchor: 9
    m_Material: {fileID: 2100000, guid: c22777d6e868e4f2fb421913386b154e, type: 2}
    m_SubmeshIndex: 0
    m_ManualUV: 0
    elementGroup: 0
    m_TextureGroup: -1
  - m_Indexes: 340000003300000032000000
    m_SmoothingGroup: 0
    m_Uv:
      m_UseWorldSpace: 0
      m_FlipU: 0
      m_FlipV: 0
      m_SwapUV: 0
      m_Fill: 1
      m_Scale: {x: 1, y: 1}
      m_Offset: {x: 0, y: 0}
      m_Rotation: 0
      m_Anchor: 9
    m_Material: {fileID: 2100000, guid: c22777d6e868e4f2fb421913386b154e, type: 2}
    m_SubmeshIndex: 0
    m_ManualUV: 0
    elementGroup: 0
    m_TextureGroup: -1
  - m_Indexes: 3a0000003900000038000000
    m_SmoothingGroup: 0
    m_Uv:
      m_UseWorldSpace: 0
      m_FlipU: 0
      m_FlipV: 0
      m_SwapUV: 0
      m_Fill: 1
      m_Scale: {x: 1, y: 1}
      m_Offset: {x: 0, y: 0}
      m_Rotation: 0
      m_Anchor: 9
    m_Material: {fileID: 2100000, guid: c22777d6e868e4f2fb421913386b154e, type: 2}
    m_SubmeshIndex: 0
    m_ManualUV: 0
    elementGroup: 0
    m_TextureGroup: -1
  - m_Indexes: 400000003f0000003e000000
    m_SmoothingGroup: 0
    m_Uv:
      m_UseWorldSpace: 0
      m_FlipU: 0
      m_FlipV: 0
      m_SwapUV: 0
      m_Fill: 1
      m_Scale: {x: 1, y: 1}
      m_Offset: {x: 0, y: 0}
      m_Rotation: 0
      m_Anchor: 9
    m_Material: {fileID: 2100000, guid: c22777d6e868e4f2fb421913386b154e, type: 2}
    m_SubmeshIndex: 0
    m_ManualUV: 0
    elementGroup: 0
    m_TextureGroup: -1
  - m_Indexes: 460000004500000044000000
    m_SmoothingGroup: 0
    m_Uv:
      m_UseWorldSpace: 0
      m_FlipU: 0
      m_FlipV: 0
      m_SwapUV: 0
      m_Fill: 1
      m_Scale: {x: 1, y: 1}
      m_Offset: {x: 0, y: 0}
      m_Rotation: 0
      m_Anchor: 9
    m_Material: {fileID: 2100000, guid: c22777d6e868e4f2fb421913386b154e, type: 2}
    m_SubmeshIndex: 0
    m_ManualUV: 0
    elementGroup: 0
    m_TextureGroup: -1
  - m_Indexes: 4c0000004b0000004a000000
    m_SmoothingGroup: 0
    m_Uv:
      m_UseWorldSpace: 0
      m_FlipU: 0
      m_FlipV: 0
      m_SwapUV: 0
      m_Fill: 1
      m_Scale: {x: 1, y: 1}
      m_Offset: {x: 0, y: 0}
      m_Rotation: 0
      m_Anchor: 9
    m_Material: {fileID: 2100000, guid: c22777d6e868e4f2fb421913386b154e, type: 2}
    m_SubmeshIndex: 0
    m_ManualUV: 0
    elementGroup: 0
    m_TextureGroup: -1
  - m_Indexes: 230000002400000025000000
    m_SmoothingGroup: 0
    m_Uv:
      m_UseWorldSpace: 0
      m_FlipU: 0
      m_FlipV: 0
      m_SwapUV: 0
      m_Fill: 1
      m_Scale: {x: 1, y: 1}
      m_Offset: {x: 0, y: 0}
      m_Rotation: 0
      m_Anchor: 9
    m_Material: {fileID: 2100000, guid: c22777d6e868e4f2fb421913386b154e, type: 2}
    m_SubmeshIndex: 0
    m_ManualUV: 0
    elementGroup: 0
    m_TextureGroup: -1
  - m_Indexes: 290000002a0000002b000000
    m_SmoothingGroup: 0
    m_Uv:
      m_UseWorldSpace: 0
      m_FlipU: 0
      m_FlipV: 0
      m_SwapUV: 0
      m_Fill: 1
      m_Scale: {x: 1, y: 1}
      m_Offset: {x: 0, y: 0}
      m_Rotation: 0
      m_Anchor: 9
    m_Material: {fileID: 2100000, guid: c22777d6e868e4f2fb421913386b154e, type: 2}
    m_SubmeshIndex: 0
    m_ManualUV: 0
    elementGroup: 0
    m_TextureGroup: -1
  - m_Indexes: 2f0000003000000031000000
    m_SmoothingGroup: 0
    m_Uv:
      m_UseWorldSpace: 0
      m_FlipU: 0
      m_FlipV: 0
      m_SwapUV: 0
      m_Fill: 1
      m_Scale: {x: 1, y: 1}
      m_Offset: {x: 0, y: 0}
      m_Rotation: 0
      m_Anchor: 9
    m_Material: {fileID: 2100000, guid: c22777d6e868e4f2fb421913386b154e, type: 2}
    m_SubmeshIndex: 0
    m_ManualUV: 0
    elementGroup: 0
    m_TextureGroup: -1
  - m_Indexes: 350000003600000037000000
    m_SmoothingGroup: 0
    m_Uv:
      m_UseWorldSpace: 0
      m_FlipU: 0
      m_FlipV: 0
      m_SwapUV: 0
      m_Fill: 1
      m_Scale: {x: 1, y: 1}
      m_Offset: {x: 0, y: 0}
      m_Rotation: 0
      m_Anchor: 9
    m_Material: {fileID: 2100000, guid: c22777d6e868e4f2fb421913386b154e, type: 2}
    m_SubmeshIndex: 0
    m_ManualUV: 0
    elementGroup: 0
    m_TextureGroup: -1
  - m_Indexes: 3b0000003c0000003d000000
    m_SmoothingGroup: 0
    m_Uv:
      m_UseWorldSpace: 0
      m_FlipU: 0
      m_FlipV: 0
      m_SwapUV: 0
      m_Fill: 1
      m_Scale: {x: 1, y: 1}
      m_Offset: {x: 0, y: 0}
      m_Rotation: 0
      m_Anchor: 9
    m_Material: {fileID: 2100000, guid: c22777d6e868e4f2fb421913386b154e, type: 2}
    m_SubmeshIndex: 0
    m_ManualUV: 0
    elementGroup: 0
    m_TextureGroup: -1
  - m_Indexes: 410000004200000043000000
    m_SmoothingGroup: 0
    m_Uv:
      m_UseWorldSpace: 0
      m_FlipU: 0
      m_FlipV: 0
      m_SwapUV: 0
      m_Fill: 1
      m_Scale: {x: 1, y: 1}
      m_Offset: {x: 0, y: 0}
      m_Rotation: 0
      m_Anchor: 9
    m_Material: {fileID: 2100000, guid: c22777d6e868e4f2fb421913386b154e, type: 2}
    m_SubmeshIndex: 0
    m_ManualUV: 0
    elementGroup: 0
    m_TextureGroup: -1
  - m_Indexes: 470000004800000049000000
    m_SmoothingGroup: 0
    m_Uv:
      m_UseWorldSpace: 0
      m_FlipU: 0
      m_FlipV: 0
      m_SwapUV: 0
      m_Fill: 1
      m_Scale: {x: 1, y: 1}
      m_Offset: {x: 0, y: 0}
      m_Rotation: 0
      m_Anchor: 9
    m_Material: {fileID: 2100000, guid: c22777d6e868e4f2fb421913386b154e, type: 2}
    m_SubmeshIndex: 0
    m_ManualUV: 0
    elementGroup: 0
    m_TextureGroup: -1
  - m_Indexes: 4d0000004e0000004f000000
    m_SmoothingGroup: 0
    m_Uv:
      m_UseWorldSpace: 0
      m_FlipU: 0
      m_FlipV: 0
      m_SwapUV: 0
      m_Fill: 1
      m_Scale: {x: 1, y: 1}
      m_Offset: {x: 0, y: 0}
      m_Rotation: 0
      m_Anchor: 9
    m_Material: {fileID: 2100000, guid: c22777d6e868e4f2fb421913386b154e, type: 2}
    m_SubmeshIndex: 0
    m_ManualUV: 0
    elementGroup: 0
    m_TextureGroup: -1
  - m_Indexes: 520000005100000050000000
    m_SmoothingGroup: 0
    m_Uv:
      m_UseWorldSpace: 0
      m_FlipU: 0
      m_FlipV: 0
      m_SwapUV: 0
      m_Fill: 1
      m_Scale: {x: 1, y: 1}
      m_Offset: {x: 0, y: 0}
      m_Rotation: 0
      m_Anchor: 6
    m_Material: {fileID: 2100000, guid: c22777d6e868e4f2fb421913386b154e, type: 2}
    m_SubmeshIndex: 0
    m_ManualUV: 1
    elementGroup: 0
    m_TextureGroup: -1
  - m_Indexes: 530000005400000055000000
    m_SmoothingGroup: 0
    m_Uv:
      m_UseWorldSpace: 0
      m_FlipU: 0
      m_FlipV: 0
      m_SwapUV: 0
      m_Fill: 1
      m_Scale: {x: 1, y: 1}
      m_Offset: {x: -1, y: -0}
      m_Rotation: 0
      m_Anchor: 9
    m_Material: {fileID: 2100000, guid: c22777d6e868e4f2fb421913386b154e, type: 2}
    m_SubmeshIndex: 0
    m_ManualUV: 0
    elementGroup: -1
    m_TextureGroup: -1
  - m_Indexes: 580000005700000056000000
    m_SmoothingGroup: 0
    m_Uv:
      m_UseWorldSpace: 0
      m_FlipU: 0
      m_FlipV: 0
      m_SwapUV: 0
      m_Fill: 1
      m_Scale: {x: 1, y: 1}
      m_Offset: {x: 0, y: 0}
      m_Rotation: 0
      m_Anchor: 9
    m_Material: {fileID: 2100000, guid: c22777d6e868e4f2fb421913386b154e, type: 2}
    m_SubmeshIndex: 0
    m_ManualUV: 1
    elementGroup: 0
    m_TextureGroup: -1
  - m_Indexes: 590000005a0000005b000000
    m_SmoothingGroup: 0
    m_Uv:
      m_UseWorldSpace: 0
      m_FlipU: 0
      m_FlipV: 0
      m_SwapUV: 0
      m_Fill: 1
      m_Scale: {x: 1, y: 1}
      m_Offset: {x: -1.0000002, y: -0}
      m_Rotation: 360
      m_Anchor: 9
    m_Material: {fileID: 2100000, guid: c22777d6e868e4f2fb421913386b154e, type: 2}
    m_SubmeshIndex: 0
    m_ManualUV: 0
    elementGroup: -1
    m_TextureGroup: -1
  - m_Indexes: 5e0000005d0000005c000000
    m_SmoothingGroup: 0
    m_Uv:
      m_UseWorldSpace: 0
      m_FlipU: 0
      m_FlipV: 0
      m_SwapUV: 0
      m_Fill: 1
      m_Scale: {x: 1, y: 1}
      m_Offset: {x: 0, y: 0}
      m_Rotation: 0
      m_Anchor: 9
    m_Material: {fileID: 2100000, guid: c22777d6e868e4f2fb421913386b154e, type: 2}
    m_SubmeshIndex: 0
    m_ManualUV: 1
    elementGroup: 0
    m_TextureGroup: -1
  - m_Indexes: 5f0000006000000061000000
    m_SmoothingGroup: 0
    m_Uv:
      m_UseWorldSpace: 0
      m_FlipU: 0
      m_FlipV: 0
      m_SwapUV: 0
      m_Fill: 1
      m_Scale: {x: 0.99999976, y: 1}
      m_Offset: {x: -1, y: -0}
      m_Rotation: 0
      m_Anchor: 9
    m_Material: {fileID: 2100000, guid: c22777d6e868e4f2fb421913386b154e, type: 2}
    m_SubmeshIndex: 0
    m_ManualUV: 0
    elementGroup: -1
    m_TextureGroup: -1
  - m_Indexes: 640000006300000062000000
    m_SmoothingGroup: 0
    m_Uv:
      m_UseWorldSpace: 0
      m_FlipU: 0
      m_FlipV: 0
      m_SwapUV: 0
      m_Fill: 1
      m_Scale: {x: 1, y: 1}
      m_Offset: {x: 0, y: 0}
      m_Rotation: 0
      m_Anchor: 9
    m_Material: {fileID: 2100000, guid: c22777d6e868e4f2fb421913386b154e, type: 2}
    m_SubmeshIndex: 0
    m_ManualUV: 1
    elementGroup: 0
    m_TextureGroup: -1
  - m_Indexes: 650000006600000067000000
    m_SmoothingGroup: 0
    m_Uv:
      m_UseWorldSpace: 0
      m_FlipU: 0
      m_FlipV: 0
      m_SwapUV: 0
      m_Fill: 1
      m_Scale: {x: 0.99999994, y: 0.9999999}
      m_Offset: {x: -1, y: -0.000000059604645}
      m_Rotation: 360
      m_Anchor: 9
    m_Material: {fileID: 2100000, guid: c22777d6e868e4f2fb421913386b154e, type: 2}
    m_SubmeshIndex: 0
    m_ManualUV: 0
    elementGroup: -1
    m_TextureGroup: -1
  - m_Indexes: 6a0000006900000068000000
    m_SmoothingGroup: 0
    m_Uv:
      m_UseWorldSpace: 0
      m_FlipU: 0
      m_FlipV: 0
      m_SwapUV: 0
      m_Fill: 1
      m_Scale: {x: 1, y: 1}
      m_Offset: {x: 0, y: 0}
      m_Rotation: 0
      m_Anchor: 9
    m_Material: {fileID: 2100000, guid: c22777d6e868e4f2fb421913386b154e, type: 2}
    m_SubmeshIndex: 0
    m_ManualUV: 1
    elementGroup: 0
    m_TextureGroup: -1
  - m_Indexes: 6b0000006c0000006d000000
    m_SmoothingGroup: 0
    m_Uv:
      m_UseWorldSpace: 0
      m_FlipU: 0
      m_FlipV: 0
      m_SwapUV: 0
      m_Fill: 1
      m_Scale: {x: 1, y: 0.99999976}
      m_Offset: {x: -1, y: -0.00000011920929}
      m_Rotation: 0
      m_Anchor: 9
    m_Material: {fileID: 2100000, guid: c22777d6e868e4f2fb421913386b154e, type: 2}
    m_SubmeshIndex: 0
    m_ManualUV: 0
    elementGroup: -1
    m_TextureGroup: -1
  - m_Indexes: 700000006f0000006e000000
    m_SmoothingGroup: 0
    m_Uv:
      m_UseWorldSpace: 0
      m_FlipU: 0
      m_FlipV: 0
      m_SwapUV: 0
      m_Fill: 1
      m_Scale: {x: 1, y: 1}
      m_Offset: {x: 0, y: 0}
      m_Rotation: 0
      m_Anchor: 9
    m_Material: {fileID: 2100000, guid: c22777d6e868e4f2fb421913386b154e, type: 2}
    m_SubmeshIndex: 0
    m_ManualUV: 1
    elementGroup: 0
    m_TextureGroup: -1
  - m_Indexes: 710000007200000073000000
    m_SmoothingGroup: 0
    m_Uv:
      m_UseWorldSpace: 0
      m_FlipU: 0
      m_FlipV: 0
      m_SwapUV: 0
      m_Fill: 1
      m_Scale: {x: 1.0000001, y: 1}
      m_Offset: {x: -1, y: -0}
      m_Rotation: 360
      m_Anchor: 9
    m_Material: {fileID: 2100000, guid: c22777d6e868e4f2fb421913386b154e, type: 2}
    m_SubmeshIndex: 0
    m_ManualUV: 0
    elementGroup: -1
    m_TextureGroup: -1
  - m_Indexes: 760000007500000074000000
    m_SmoothingGroup: 0
    m_Uv:
      m_UseWorldSpace: 0
      m_FlipU: 0
      m_FlipV: 0
      m_SwapUV: 0
      m_Fill: 1
      m_Scale: {x: 1, y: 1}
      m_Offset: {x: 0, y: 0}
      m_Rotation: 0
      m_Anchor: 9
    m_Material: {fileID: 2100000, guid: c22777d6e868e4f2fb421913386b154e, type: 2}
    m_SubmeshIndex: 0
    m_ManualUV: 1
    elementGroup: 0
    m_TextureGroup: -1
  - m_Indexes: 770000007800000079000000
    m_SmoothingGroup: 0
    m_Uv:
      m_UseWorldSpace: 0
      m_FlipU: 0
      m_FlipV: 0
      m_SwapUV: 0
      m_Fill: 1
      m_Scale: {x: 1.0000002, y: 1}
      m_Offset: {x: -0.99999994, y: -0}
      m_Rotation: 360
      m_Anchor: 9
    m_Material: {fileID: 2100000, guid: c22777d6e868e4f2fb421913386b154e, type: 2}
    m_SubmeshIndex: 0
    m_ManualUV: 0
    elementGroup: -1
    m_TextureGroup: -1
  - m_Indexes: 7c0000007b0000007a000000
    m_SmoothingGroup: 0
    m_Uv:
      m_UseWorldSpace: 0
      m_FlipU: 0
      m_FlipV: 0
      m_SwapUV: 0
      m_Fill: 1
      m_Scale: {x: 1, y: 1}
      m_Offset: {x: 0, y: 0}
      m_Rotation: 0
      m_Anchor: 9
    m_Material: {fileID: 2100000, guid: c22777d6e868e4f2fb421913386b154e, type: 2}
    m_SubmeshIndex: 0
    m_ManualUV: 1
    elementGroup: 0
    m_TextureGroup: -1
  - m_Indexes: 7d0000007e0000007f000000
    m_SmoothingGroup: 0
    m_Uv:
      m_UseWorldSpace: 0
      m_FlipU: 0
      m_FlipV: 0
      m_SwapUV: 0
      m_Fill: 1
      m_Scale: {x: 1, y: 1}
      m_Offset: {x: -1, y: -0}
      m_Rotation: 0
      m_Anchor: 9
    m_Material: {fileID: 2100000, guid: c22777d6e868e4f2fb421913386b154e, type: 2}
    m_SubmeshIndex: 0
    m_ManualUV: 0
    elementGroup: -1
    m_TextureGroup: -1
  m_SharedVertices:
  - m_Vertices: 000000001e000000200000004c000000
  - m_Vertices: 010000001f000000230000004f000000
  - m_Vertices: 02000000040000002200000026000000
  - m_Vertices: 03000000050000002500000029000000
  - m_Vertices: 0600000008000000280000002c000000
  - m_Vertices: 07000000090000002b0000002f000000
  - m_Vertices: 0a0000000c0000002e00000032000000
  - m_Vertices: 0b0000000d0000003100000035000000
  - m_Vertices: 0e000000100000003400000038000000
  - m_Vertices: 0f00000011000000370000003b000000
  - m_Vertices: 12000000140000003a0000003e000000
  - m_Vertices: 13000000150000003d00000041000000
  - m_Vertices: 16000000180000004000000044000000
  - m_Vertices: 17000000190000004300000047000000
  - m_Vertices: 1a0000001c000000460000004a000000
  - m_Vertices: 1b0000001d000000490000004d000000
  - m_Vertices: 21000000270000002d00000033000000390000003f000000450000004b000000
  - m_Vertices: 240000002a00000030000000360000003c00000042000000480000004e000000
  - m_Vertices: 50000000530000007b0000007e000000
  - m_Vertices: 51000000540000005600000059000000
  - m_Vertices: 52000000580000005e000000640000006a00000070000000760000007c000000
  - m_Vertices: 550000005b00000061000000670000006d00000073000000790000007f000000
  - m_Vertices: 570000005a0000005c0000005f000000
  - m_Vertices: 5d000000600000006200000065000000
  - m_Vertices: 6300000066000000680000006b000000
  - m_Vertices: 690000006c0000006e00000071000000
  - m_Vertices: 6f000000720000007400000077000000
  - m_Vertices: 75000000780000007a0000007d000000
  m_SharedTextures: []
  m_Positions:
  - {x: 0, y: 0, z: 0}
  - {x: 0, y: 1, z: 0}
  - {x: -0.14644662, y: 0, z: 0.35355338}
  - {x: -0.14644662, y: 1, z: 0.35355338}
  - {x: -0.14644662, y: 0, z: 0.35355338}
  - {x: -0.14644662, y: 1, z: 0.35355338}
  - {x: -0.5, y: 0, z: 0.5}
  - {x: -0.5, y: 1, z: 0.5}
  - {x: -0.5, y: 0, z: 0.5}
  - {x: -0.5, y: 1, z: 0.5}
  - {x: -0.8535534, y: 0, z: 0.35355338}
  - {x: -0.8535534, y: 1, z: 0.35355338}
  - {x: -0.8535534, y: 0, z: 0.35355338}
  - {x: -0.8535534, y: 1, z: 0.35355338}
  - {x: -1, y: 0, z: -0.00000004371139}
  - {x: -1, y: 1, z: -0.00000004371139}
  - {x: -1, y: 0, z: -0.00000004371139}
  - {x: -1, y: 1, z: -0.00000004371139}
  - {x: -0.8535534, y: 0, z: -0.35355335}
  - {x: -0.8535534, y: 1, z: -0.35355335}
  - {x: -0.8535534, y: 0, z: -0.35355335}
  - {x: -0.8535534, y: 1, z: -0.35355335}
  - {x: -0.5, y: 0, z: -0.5}
  - {x: -0.5, y: 1, z: -0.5}
  - {x: -0.5, y: 0, z: -0.5}
  - {x: -0.5, y: 1, z: -0.5}
  - {x: -0.14644668, y: 0, z: -0.35355344}
  - {x: -0.14644668, y: 1, z: -0.35355344}
  - {x: -0.14644668, y: 0, z: -0.35355344}
  - {x: -0.14644668, y: 1, z: -0.35355344}
  - {x: 0, y: 0, z: 0}
  - {x: 0, y: 1, z: 0}
  - {x: 0, y: 0, z: 0}
  - {x: -0.5, y: 0, z: 0}
  - {x: -0.14644662, y: 0, z: 0.35355338}
  - {x: 0, y: 1, z: 0}
  - {x: -0.5, y: 1, z: 0}
  - {x: -0.14644662, y: 1, z: 0.35355338}
  - {x: -0.14644662, y: 0, z: 0.35355338}
  - {x: -0.5, y: 0, z: 0}
  - {x: -0.5, y: 0, z: 0.5}
  - {x: -0.14644662, y: 1, z: 0.35355338}
  - {x: -0.5, y: 1, z: 0}
  - {x: -0.5, y: 1, z: 0.5}
  - {x: -0.5, y: 0, z: 0.5}
  - {x: -0.5, y: 0, z: 0}
  - {x: -0.8535534, y: 0, z: 0.35355338}
  - {x: -0.5, y: 1, z: 0.5}
  - {x: -0.5, y: 1, z: 0}
  - {x: -0.8535534, y: 1, z: 0.35355338}
  - {x: -0.8535534, y: 0, z: 0.35355338}
  - {x: -0.5, y: 0, z: 0}
  - {x: -1, y: 0, z: -0.00000004371139}
  - {x: -0.8535534, y: 1, z: 0.35355338}
  - {x: -0.5, y: 1, z: 0}
  - {x: -1, y: 1, z: -0.00000004371139}
  - {x: -1, y: 0, z: -0.00000004371139}
  - {x: -0.5, y: 0, z: 0}
  - {x: -0.8535534, y: 0, z: -0.35355335}
  - {x: -1, y: 1, z: -0.00000004371139}
  - {x: -0.5, y: 1, z: 0}
  - {x: -0.8535534, y: 1, z: -0.35355335}
  - {x: -0.8535534, y: 0, z: -0.35355335}
  - {x: -0.5, y: 0, z: 0}
  - {x: -0.5, y: 0, z: -0.5}
  - {x: -0.8535534, y: 1, z: -0.35355335}
  - {x: -0.5, y: 1, z: 0}
  - {x: -0.5, y: 1, z: -0.5}
  - {x: -0.5, y: 0, z: -0.5}
  - {x: -0.5, y: 0, z: 0}
  - {x: -0.14644668, y: 0, z: -0.35355344}
  - {x: -0.5, y: 1, z: -0.5}
  - {x: -0.5, y: 1, z: 0}
  - {x: -0.14644668, y: 1, z: -0.35355344}
  - {x: -0.14644668, y: 0, z: -0.35355344}
  - {x: -0.5, y: 0, z: 0}
  - {x: 0, y: 0, z: 0}
  - {x: -0.14644668, y: 1, z: -0.35355344}
  - {x: -0.5, y: 1, z: 0}
  - {x: 0, y: 1, z: 0}
  - {x: 1, y: 1, z: 0}
  - {x: 0.56066036, y: 1, z: 1.0606601}
  - {x: -0.5, y: 7, z: 0}
  - {x: 1, y: 1, z: 0}
  - {x: 0.56066036, y: 1, z: 1.0606601}
  - {x: -0.5, y: 1, z: 0}
  - {x: 0.56066036, y: 1, z: 1.0606601}
  - {x: -0.5, y: 1, z: 1.5}
  - {x: -0.5, y: 7, z: 0}
  - {x: 0.56066036, y: 1, z: 1.0606601}
  - {x: -0.5, y: 1, z: 1.5}
  - {x: -0.5, y: 1, z: 0}
  - {x: -0.5, y: 1, z: 1.5}
  - {x: -1.5606604, y: 1, z: 1.0606601}
  - {x: -0.5, y: 7, z: 0}
  - {x: -0.5, y: 1, z: 1.5}
  - {x: -1.5606604, y: 1, z: 1.0606601}
  - {x: -0.5, y: 1, z: 0}
  - {x: -1.5606604, y: 1, z: 1.0606601}
  - {x: -2, y: 1, z: -0.00000023841858}
  - {x: -0.5, y: 7, z: 0}
  - {x: -1.5606604, y: 1, z: 1.0606601}
  - {x: -2, y: 1, z: -0.00000023841858}
  - {x: -0.5, y: 1, z: 0}
  - {x: -2, y: 1, z: -0.00000023841858}
  - {x: -1.5606604, y: 1, z: -1.0606604}
  - {x: -0.5, y: 7, z: 0}
  - {x: -2, y: 1, z: -0.00000023841858}
  - {x: -1.5606604, y: 1, z: -1.0606604}
  - {x: -0.5, y: 1, z: 0}
  - {x: -1.5606604, y: 1, z: -1.0606604}
  - {x: -0.5, y: 1, z: -1.5}
  - {x: -0.5, y: 7, z: 0}
  - {x: -1.5606604, y: 1, z: -1.0606604}
  - {x: -0.5, y: 1, z: -1.5}
  - {x: -0.5, y: 1, z: 0}
  - {x: -0.5, y: 1, z: -1.5}
  - {x: 0.5606599, y: 1, z: -1.0606604}
  - {x: -0.5, y: 7, z: 0}
  - {x: -0.5, y: 1, z: -1.5}
  - {x: 0.5606599, y: 1, z: -1.0606604}
  - {x: -0.5, y: 1, z: 0}
  - {x: 0.5606599, y: 1, z: -1.0606604}
  - {x: 1, y: 1, z: 0}
  - {x: -0.5, y: 7, z: 0}
  - {x: 0.5606599, y: 1, z: -1.0606604}
  - {x: 1, y: 1, z: 0}
  - {x: -0.5, y: 1, z: 0}
  m_Textures0:
  - {x: 0, y: 0}
  - {x: 0, y: 1}
  - {x: 0.38268343, y: 0}
  - {x: 0.38268343, y: 1}
  - {x: 0.27059805, y: 0}
  - {x: 0.27059805, y: 1}
  - {x: 0.65328145, y: 0}
  - {x: 0.65328145, y: 1}
  - {x: 0.27059805, y: 0}
  - {x: 0.27059805, y: 1}
  - {x: 0.6532815, y: 0}
  - {x: 0.6532815, y: 1}
  - {x: -0.00000007801127, y: 0}
  - {x: -0.00000007801127, y: 1}
  - {x: 0.38268337, y: 0}
  - {x: 0.38268337, y: 1}
  - {x: -0.3826834, y: 0}
  - {x: -0.3826834, y: 1}
  - {x: -0.00000004690953, y: 0}
  - {x: -0.00000004690953, y: 1}
  - {x: -0.65328145, y: 0}
  - {x: -0.65328145, y: 1}
  - {x: -0.270598, y: 0}
  - {x: -0.270598, y: 1}
  - {x: -0.65328145, y: 0}
  - {x: -0.65328145, y: 1}
  - {x: -0.2705981, y: 0}
  - {x: -0.2705981, y: 1}
  - {x: -0.38268352, y: 0}
  - {x: -0.38268352, y: 1}
  - {x: 0, y: 0}
  - {x: 0, y: 1}
  - {x: 0, y: 0}
  - {x: 0.5, y: 0}
  - {x: 0.14644662, y: 0.35355338}
  - {x: 0, y: 0}
  - {x: -0.5, y: 0}
  - {x: -0.14644662, y: 0.35355338}
  - {x: 0.14644662, y: 0.35355338}
  - {x: 0.5, y: 0}
  - {x: 0.5, y: 0.5}
  - {x: -0.14644662, y: 0.35355338}
  - {x: -0.5, y: 0}
  - {x: -0.5, y: 0.5}
  - {x: 0.5, y: 0.5}
  - {x: 0.5, y: 0}
  - {x: 0.8535534, y: 0.35355338}
  - {x: -0.5, y: 0.5}
  - {x: -0.5, y: 0}
  - {x: -0.8535534, y: 0.35355338}
  - {x: 0.8535534, y: 0.35355338}
  - {x: 0.5, y: 0}
  - {x: 1, y: -0.00000004371139}
  - {x: -0.8535534, y: 0.35355338}
  - {x: -0.5, y: 0}
  - {x: -1, y: -0.00000004371139}
  - {x: 1, y: -0.00000004371139}
  - {x: 0.5, y: 0}
  - {x: 0.8535534, y: -0.35355335}
  - {x: -1, y: -0.00000004371139}
  - {x: -0.5, y: 0}
  - {x: -0.8535534, y: -0.35355335}
  - {x: 0.8535534, y: -0.35355335}
  - {x: 0.5, y: 0}
  - {x: 0.5, y: -0.5}
  - {x: -0.8535534, y: -0.35355335}
  - {x: -0.5, y: 0}
  - {x: -0.5, y: -0.5}
  - {x: 0.5, y: -0.5}
  - {x: 0.5, y: 0}
  - {x: 0.14644668, y: -0.35355344}
  - {x: -0.5, y: -0.5}
  - {x: -0.5, y: 0}
  - {x: -0.14644668, y: -0.35355344}
  - {x: 0.14644668, y: -0.35355344}
  - {x: 0.5, y: 0}
  - {x: 0, y: 0}
  - {x: -0.14644668, y: -0.35355344}
  - {x: -0.5, y: 0}
  - {x: 0, y: 0}
  - {x: 0, y: 0}
  - {x: 1.1480503, y: 0.000000005736121}
  - {x: 0.5740252, y: 6.157962}
  - {x: 0, y: 0}
  - {x: 0.43933964, y: 1.0606601}
  - {x: 1.5, y: 0}
  - {x: 0, y: 0}
  - {x: 1.1480503, y: 0.000000005736121}
  - {x: 0.5740252, y: 6.157962}
  - {x: 0.43933994, y: 1.0606602}
  - {x: 1.5000004, y: 1.4999999}
  - {x: 1.5000001, y: -0.00000011920929}
  - {x: 0, y: 0}
  - {x: 1.1480503, y: 0.000000005736121}
  - {x: 0.5740252, y: 6.157962}
  - {x: 1.5000001, y: 1.5}
  - {x: 2.5606604, y: 1.0606601}
  - {x: 1.5000001, y: 0}
  - {x: 0, y: 0}
  - {x: 1.1480503, y: 0.000000005736121}
  - {x: 0.5740252, y: 6.157962}
  - {x: 2.5606604, y: 1.0606601}
  - {x: 3, y: -0.00000023841858}
  - {x: 1.5, y: 0.00000023841858}
  - {x: 0, y: 0}
  - {x: 1.1480503, y: 0.000000005736121}
  - {x: 0.5740252, y: 6.157962}
  - {x: 3, y: -0.00000023841858}
  - {x: 2.5606604, y: -1.0606601}
  - {x: 1.5, y: 0}
  - {x: 0, y: 0}
  - {x: 1.1480503, y: 0.000000005736121}
  - {x: 0.5740252, y: 6.157962}
  - {x: 2.5606604, y: -1.0606605}
  - {x: 1.4999998, y: -1.4999999}
  - {x: 1.5, y: 0.00000011920929}
  - {x: 0, y: 0}
  - {x: 1.1480503, y: 0.000000005736121}
  - {x: 0.5740252, y: 6.157962}
  - {x: 1.5, y: -1.5000001}
  - {x: 0.43933988, y: -1.0606602}
  - {x: 1.5000002, y: -0.00000011920929}
  - {x: 0, y: 0}
  - {x: 1.1480503, y: 0.000000005736121}
  - {x: 0.5740252, y: 6.157962}
  - {x: 0.4393401, y: -1.0606604}
  - {x: 0, y: 0}
  - {x: 1.5, y: 0}
  m_Textures2: []
  m_Textures3: []
  m_Tangents:
  - {x: 0.0000000645156, y: 0, z: 1, w: -1}
  - {x: 0.0000000645156, y: 0, z: 1, w: -1}
  - {x: -0.7071068, y: 0, z: 0.7071067, w: -1}
  - {x: -0.7071068, y: 0, z: 0.7071067, w: -1}
  - {x: -0.7071068, y: 0, z: 0.7071068, w: -1}
  - {x: -0.7071068, y: 0, z: 0.7071068, w: -1}
  - {x: -1, y: 0, z: 0.000000032257798, w: -1}
  - {x: -1, y: 0, z: 0.000000032257798, w: -1}
  - {x: -1, y: 0, z: 0.0000000322578, w: -1}
  - {x: -1, y: 0, z: 0.0000000322578, w: -1}
  - {x: -0.7071067, y: 0, z: -0.7071068, w: -1}
  - {x: -0.7071067, y: 0, z: -0.7071068, w: -1}
  - {x: -0.70710677, y: 0, z: -0.70710677, w: -1}
  - {x: -0.70710677, y: 0, z: -0.70710677, w: -1}
  - {x: 0.0000000645156, y: 0, z: -1, w: -1}
  - {x: 0.0000000645156, y: 0, z: -1, w: -1}
  - {x: 0.0000000645156, y: 0, z: -1, w: -1}
  - {x: 0.0000000645156, y: 0, z: -1, w: -1}
  - {x: 0.7071068, y: 0, z: -0.7071067, w: -1}
  - {x: 0.7071068, y: 0, z: -0.7071067, w: -1}
  - {x: 0.7071067, y: 0, z: -0.7071068, w: -1}
  - {x: 0.7071067, y: 0, z: -0.7071068, w: -1}
  - {x: 1, y: 0, z: -0.0000000322578, w: -1}
  - {x: 1, y: 0, z: -0.0000000322578, w: -1}
  - {x: 1, y: 0, z: -0.0000000322578, w: -1}
  - {x: 1, y: 0, z: -0.0000000322578, w: -1}
  - {x: 0.7071068, y: 0, z: 0.7071067, w: -1}
  - {x: 0.7071068, y: 0, z: 0.7071067, w: -1}
  - {x: 0.70710677, y: 0, z: 0.70710677, w: -1}
  - {x: 0.70710677, y: 0, z: 0.70710677, w: -1}
  - {x: 0.000000032257805, y: 0, z: 1, w: -1}
  - {x: 0.000000032257805, y: 0, z: 1, w: -1}
  - {x: -1, y: 0, z: 0, w: -1}
  - {x: -1, y: 0, z: 0, w: -1}
  - {x: -1, y: 0, z: 0, w: -1}
  - {x: 1, y: 0, z: 0, w: -1}
  - {x: 1, y: 0, z: 0, w: -1}
  - {x: 1, y: 0, z: 0, w: -1}
  - {x: -1, y: 0, z: 0, w: -1}
  - {x: -1, y: 0, z: 0, w: -1}
  - {x: -1, y: 0, z: 0, w: -1}
  - {x: 1, y: 0, z: 0, w: -1}
  - {x: 1, y: 0, z: 0, w: -1}
  - {x: 1, y: 0, z: 0, w: -1}
  - {x: -1, y: 0, z: 0, w: -1}
  - {x: -1, y: 0, z: 0, w: -1}
  - {x: -1, y: 0, z: 0, w: -1}
  - {x: 1, y: 0, z: 0, w: -1}
  - {x: 1, y: 0, z: 0, w: -1}
  - {x: 1, y: 0, z: 0, w: -1}
  - {x: -1, y: 0, z: 0, w: -1}
  - {x: -1, y: 0, z: 0, w: -1}
  - {x: -1, y: 0, z: 0, w: -1}
  - {x: 1, y: 0, z: 0, w: -1}
  - {x: 1, y: 0, z: 0, w: -1}
  - {x: 1, y: 0, z: 0, w: -1}
  - {x: -1, y: 0, z: 0, w: -1}
  - {x: -1, y: 0, z: 0, w: -1}
  - {x: -1, y: 0, z: 0, w: -1}
  - {x: 1, y: 0, z: 0, w: -1}
  - {x: 1, y: 0, z: 0, w: -1}
  - {x: 1, y: 0, z: 0, w: -1}
  - {x: -1, y: 0, z: 0, w: -1}
  - {x: -1, y: 0, z: 0, w: -1}
  - {x: -1, y: 0, z: 0, w: -1}
  - {x: 1, y: 0, z: 0, w: -1}
  - {x: 1, y: 0, z: 0, w: -1}
  - {x: 1, y: 0, z: 0, w: -1}
  - {x: -1, y: 0, z: 0, w: -1}
  - {x: -1, y: 0, z: 0, w: -1}
  - {x: -1, y: 0, z: 0, w: -1}
  - {x: 1, y: 0, z: 0, w: -1}
  - {x: 1, y: 0, z: 0, w: -1}
  - {x: 1, y: 0, z: 0, w: -1}
  - {x: -1, y: 0, z: 0, w: -1}
  - {x: -1, y: 0, z: 0, w: -1}
  - {x: -1, y: 0, z: 0, w: -1}
  - {x: 1, y: 0, z: 0, w: -1}
  - {x: 1, y: 0, z: 0, w: -1}
  - {x: 1, y: 0, z: 0, w: -1}
  - {x: -0.3826833, y: 0.000000006706869, z: 0.9238796, w: -1}
  - {x: -0.3826833, y: 0.000000006706869, z: 0.9238796, w: -1}
  - {x: -0.3826833, y: 0.000000006706869, z: 0.9238796, w: -1}
  - {x: -1, y: 0, z: 0, w: -1}
  - {x: -1, y: 0, z: 0, w: -1}
  - {x: -1, y: 0, z: 0, w: -1}
  - {x: -0.92387956, y: 0, z: 0.38268343, w: -1}
  - {x: -0.92387956, y: 0, z: 0.38268343, w: -1}
  - {x: -0.92387956, y: 0, z: 0.38268343, w: -1}
  - {x: -1, y: 0, z: 0, w: -1}
  - {x: -1, y: 0, z: 0, w: -1}
  - {x: -1, y: 0, z: 0, w: -1}
  - {x: -0.92387956, y: 0, z: -0.38268343, w: -1}
  - {x: -0.92387956, y: 0, z: -0.38268343, w: -1}
  - {x: -0.92387956, y: 0, z: -0.38268343, w: -1}
  - {x: -1, y: 0, z: 0, w: -1}
  - {x: -1, y: 0, z: 0, w: -1}
  - {x: -1, y: 0, z: 0, w: -1}
  - {x: -0.38268325, y: -0.0000000067068675, z: -0.9238797, w: -1}
  - {x: -0.38268325, y: -0.0000000067068675, z: -0.9238797, w: -1}
  - {x: -0.38268325, y: -0.0000000067068675, z: -0.9238797, w: -1}
  - {x: -1, y: 0, z: -0.00000007947285, w: -1}
  - {x: -1, y: 0, z: -0.00000007947285, w: -1}
  - {x: -1, y: 0, z: -0.00000007947285, w: -1}
  - {x: 0.3826833, y: 0.0000000067068693, z: -0.9238796, w: -1}
  - {x: 0.3826833, y: 0.0000000067068693, z: -0.9238796, w: -1}
  - {x: 0.3826833, y: 0.0000000067068693, z: -0.9238796, w: -1}
  - {x: -1, y: 0, z: -0.00000007152293, w: -1}
  - {x: -1, y: 0, z: -0.00000007152293, w: -1}
  - {x: -1, y: 0, z: -0.00000007152293, w: -1}
  - {x: 0.9238797, y: -0.000000006706868, z: -0.38268325, w: -1}
  - {x: 0.9238797, y: -0.000000006706868, z: -0.38268325, w: -1}
  - {x: 0.9238797, y: -0.000000006706868, z: -0.38268325, w: -1}
  - {x: -1, y: 0, z: -0.00000022478315, w: -1}
  - {x: -1, y: 0, z: -0.00000022478315, w: -1}
  - {x: -1, y: 0, z: -0.00000022478315, w: -1}
  - {x: 0.92387956, y: 0, z: 0.3826834, w: -1}
  - {x: 0.92387956, y: 0, z: 0.3826834, w: -1}
  - {x: 0.92387956, y: 0, z: 0.3826834, w: -1}
  - {x: -1, y: 0, z: 0, w: -1}
  - {x: -1, y: 0, z: 0, w: -1}
  - {x: -1, y: 0, z: 0, w: -1}
  - {x: 0.38268358, y: -0.0000000067068653, z: 0.92387944, w: -1}
  - {x: 0.38268358, y: -0.0000000067068653, z: 0.92387944, w: -1}
  - {x: 0.38268358, y: -0.0000000067068653, z: 0.92387944, w: -1}
  - {x: -1, y: 0, z: 0, w: -1}
  - {x: -1, y: 0, z: 0, w: -1}
  - {x: -1, y: 0, z: 0, w: -1}
  m_Colors: []
  m_UnwrapParameters:
    m_HardAngle: 88
    m_PackMargin: 20
    m_AngleError: 8
    m_AreaError: 15
  m_PreserveMeshAssetOnDestroy: 0
  assetGuid: 
  m_Mesh: {fileID: 0}
  m_IsSelectable: 1
  m_SelectedFaces: 
  m_SelectedEdges: []
  m_SelectedVertices: 
--- !u!23 &1892744262930587147
MeshRenderer:
  m_ObjectHideFlags: 0
  m_CorrespondingSourceObject: {fileID: 0}
  m_PrefabInstance: {fileID: 0}
  m_PrefabAsset: {fileID: 0}
  m_GameObject: {fileID: 710461989053120313}
  m_Enabled: 1
  m_CastShadows: 1
  m_ReceiveShadows: 1
  m_DynamicOccludee: 1
  m_MotionVectors: 1
  m_LightProbeUsage: 1
  m_ReflectionProbeUsage: 1
  m_RayTracingMode: 2
  m_RayTraceProcedural: 0
  m_RenderingLayerMask: 1
  m_RendererPriority: 0
  m_Materials:
  - {fileID: 2100000, guid: c22777d6e868e4f2fb421913386b154e, type: 2}
  m_StaticBatchInfo:
    firstSubMesh: 0
    subMeshCount: 0
  m_StaticBatchRoot: {fileID: 0}
  m_ProbeAnchor: {fileID: 0}
  m_LightProbeVolumeOverride: {fileID: 0}
  m_ScaleInLightmap: 1
  m_ReceiveGI: 1
  m_PreserveUVs: 0
  m_IgnoreNormalsForChartDetection: 0
  m_ImportantGI: 0
  m_StitchLightmapSeams: 1
  m_SelectedEditorRenderState: 2
  m_MinimumChartSize: 4
  m_AutoUVMaxDistance: 0.5
  m_AutoUVMaxAngle: 89
  m_LightmapParameters: {fileID: 0}
  m_SortingLayerID: 0
  m_SortingLayer: 0
  m_SortingOrder: 0
  m_AdditionalVertexStreams: {fileID: 0}
--- !u!33 &234348182019268878
MeshFilter:
  m_ObjectHideFlags: 0
  m_CorrespondingSourceObject: {fileID: 0}
  m_PrefabInstance: {fileID: 0}
  m_PrefabAsset: {fileID: 0}
  m_GameObject: {fileID: 710461989053120313}
  m_Mesh: {fileID: 0}
--- !u!64 &3926658831441500453
MeshCollider:
  m_ObjectHideFlags: 0
  m_CorrespondingSourceObject: {fileID: 0}
  m_PrefabInstance: {fileID: 0}
  m_PrefabAsset: {fileID: 0}
  m_GameObject: {fileID: 710461989053120313}
  m_Material: {fileID: 0}
  m_IsTrigger: 0
  m_Enabled: 1
  serializedVersion: 4
  m_Convex: 0
  m_CookingOptions: 30
  m_Mesh: {fileID: 0}
